{
  "firebase": "budget-web",
  "public": ".",
  "ignore": [
    "app/**/*.js",
    "firebase.json",
    "bower.json",
    "gulpfile.js",
    "karma.conf.js",
    "package.json",
    "bower_components/**",
    "coverage/**",
    "node_modules/**"
  ]
}
